{
    "results" : [
                 {
                 "id" : 3518613,
                 "state" : "PA",
                 "lon" : -75.1500015258789,
                 "visited" : 1329259247000,
                 "link" : "http://www.meetup.com/members/3518613",
                 "other_services" : {},
                 "bio" : "I am a Queen Village singleton, and have been to Toastmasters a few time in the past and enjoyed it. I would like to hone my public speaking skills and meet friendly, intelligent folks, as well.",
                 "self" : {
                 "common" : {}
                 },
                 "lat" : 39.939998626708984,
                 "topics" : [],
                 "city" : "Philadelphia",
                 "joined" : 1327853699000,
                 "lang" : "en_US",
                 "country" : "us",
                 "photo" : {
                 "photo_id" : 2575255,
                 "photo_link" : "http://photos3.meetupstatic.com/photos/member/d/7/d/7/member_2575255.jpeg",
                 "highres_link" : "http://photos3.meetupstatic.com/photos/member/d/7/d/7/highres_2575255.jpeg",
                 "thumb_link" : "http://photos3.meetupstatic.com/photos/member/d/7/d/7/thumb_2575255.jpeg"
                 },
                 "name" : "Adrienne"
                 },
                 {
                 "id" : 68905712,
                 "state" : "PA",
                 "lon" : -75.13999938964844,
                 "visited" : 1353636398000,
                 "link" : "http://www.meetup.com/members/68905712",
                 "other_services" : {},
                 "bio" : "Hello",
                 "self" : {
                 "common" : {}
                 },
                 "lat" : 40.0099983215332,
                 "topics" : [
                             {
                             "urlkey" : "opera",
                             "id" : 2812,
                             "name" : "Opera"
                             },
                             {
                             "urlkey" : "classical",
                             "id" : 133,
                             "name" : "Classical Music"
                             },
                             {
                             "urlkey" : "italian-film",
                             "id" : 15026,
                             "name" : "Italian Film"
                             },
                             {
                             "urlkey" : "italians",
                             "id" : 17507,
                             "name" : "Italians"
                             },
                             {
                             "urlkey" : "italian-culture",
                             "id" : 15028,
                             "name" : "Italian Culture"
                             },
                             {
                             "urlkey" : "italian-conversation",
                             "id" : 52004,
                             "name" : "Italian Conversation"
                             },
                             {
                             "urlkey" : "italian",
                             "id" : 184,
                             "name" : "Italian Language"
                             },
                             {
                             "urlkey" : "italian-food",
                             "id" : 15027,
                             "name" : "Italian Food"
                             },
                             {
                             "urlkey" : "french-culture",
                             "id" : 21183,
                             "name" : "French Culture"
                             },
                             {
                             "urlkey" : "histpreserv",
                             "id" : 8758,
                             "name" : "Historic Preservation"
                             },
                             {
                             "urlkey" : "historic-buildings",
                             "id" : 20911,
                             "name" : "Historic Buildings"
                             },
                             {
                             "urlkey" : "historic-restoration",
                             "id" : 79273,
                             "name" : "Historic Restoration"
                             },
                             {
                             "urlkey" : "self-improvement",
                             "id" : 3336,
                             "name" : "Self-Improvement"
                             },
                             {
                             "urlkey" : "positive-thinking",
                             "id" : 16212,
                             "name" : "Positive Thinking"
                             },
                             {
                             "urlkey" : "lifetransform",
                             "id" : 8702,
                             "name" : "Life Transformation"
                             }
                             ],
                 "city" : "Philadelphia",
                 "joined" : 1353636398000,
                 "lang" : "en_US",
                 "country" : "us",
                 "photo" : {
                 "photo_id" : 81033992,
                 "photo_link" : "http://photos2.meetupstatic.com/photos/member/8/4/c/8/member_81033992.jpeg",
                 "highres_link" : "http://photos2.meetupstatic.com/photos/member/8/4/c/8/highres_81033992.jpeg",
                 "thumb_link" : "http://photos2.meetupstatic.com/photos/member/8/4/c/8/thumb_81033992.jpeg"
                 },
                 "name" : "AdrienneC"
                 },
                 {
                 "id" : 4595068,
                 "state" : "PA",
                 "lon" : -75.13999938964844,
                 "visited" : 1331087335000,
                 "link" : "http://www.meetup.com/members/4595068",
                 "other_services" : {},
                 "bio" : "AJ Moore Consulting \r\nPresident\r\nAccounting,Business Consulting, insurance\r\nLocation- Newtown Square, Pa. \r\n610-355-7655",
                 "self" : {
                 "common" : {}
                 },
                 "lat" : 40,
                 "topics" : [],
                 "city" : "Philadelphia",
                 "joined" : 1330931238000,
                 "lang" : "en_US",
                 "country" : "us",
                 "photo" : {
                 "photo_id" : 2170483,
                 "photo_link" : "http://photos2.meetupstatic.com/photos/member/2/8/f/3/member_2170483.jpeg",
                 "highres_link" : "http://photos4.meetupstatic.com/photos/member/2/8/f/3/highres_2170483.jpeg",
                 "thumb_link" : "http://photos2.meetupstatic.com/photos/member/2/8/f/3/thumb_2170483.jpeg"
                 },
                 "name" : "AJ Moore"
                 },
                 {
                 "id" : 2778422,
                 "state" : "PA",
                 "lon" : -75.2300033569336,
                 "visited" : 1346855209000,
                 "link" : "http://www.meetup.com/members/2778422",
                 "other_services" : {
                 "facebook" : {
                 "identifier" : 633264212
                 }
                 },
                 "bio" : "Media Center Manager at Scribe Video Center, Independent Media Maker, Have always been fearful of public speaking, but would like to overcome fear, Looking to step out of my comfort zone and gain confidence with speaking in front of an audience",
                 "self" : {
                 "common" : {}
                 },
                 "lat" : 39.939998626708984,
                 "topics" : [
                             {
                             "urlkey" : "filmind",
                             "id" : 382,
                             "name" : "Film Industry"
                             },
                             {
                             "urlkey" : "film",
                             "id" : 15029,
                             "name" : "Film"
                             },
                             {
                             "urlkey" : "movies",
                             "id" : 1201,
                             "name" : "Movie Fans"
                             },
                             {
                             "urlkey" : "cinema-and-films",
                             "id" : 15626,
                             "name" : "Cinema and Films"
                             },
                             {
                             "urlkey" : "group-discussion",
                             "id" : 29186,
                             "name" : "Group Discussion"
                             },
                             {
                             "urlkey" : "movie-nights",
                             "id" : 15940,
                             "name" : "Movie Nights"
                             },
                             {
                             "urlkey" : "docfilm",
                             "id" : 4098,
                             "name" : "Documentary Films"
                             },
                             {
                             "urlkey" : "discussion",
                             "id" : 15207,
                             "name" : "Discussion"
                             },
                             {
                             "urlkey" : "cinema-and-discussion",
                             "id" : 28583,
                             "name" : "Cinema and Discussion"
                             },
                             {
                             "urlkey" : "indie-filmmaking-and-independent-film",
                             "id" : 24065,
                             "name" : "Indie Filmmaking and Independent Film"
                             },
                             {
                             "urlkey" : "indiefilm",
                             "id" : 914,
                             "name" : "Indie Film"
                             },
                             {
                             "urlkey" : "intellectual-discussion",
                             "id" : 15083,
                             "name" : "Intellectual Discussion"
                             },
                             {
                             "urlkey" : "foreign-films",
                             "id" : 19665,
                             "name" : "Foreign Films"
                             },
                             {
                             "urlkey" : "digcam",
                             "id" : 206,
                             "name" : "Digital Photography"
                             },
                             {
                             "urlkey" : "film-and-video-production",
                             "id" : 20021,
                             "name" : "film and video production"
                             },
                             {
                             "urlkey" : "dv",
                             "id" : 427,
                             "name" : "Digital Video"
                             },
                             {
                             "urlkey" : "video-editing",
                             "id" : 18148,
                             "name" : "video editing"
                             },
                             {
                             "urlkey" : "dslr-camera",
                             "id" : 102166,
                             "name" : "DSLR Camera"
                             },
                             {
                             "urlkey" : "photography-workshops",
                             "id" : 15044,
                             "name" : "Photography Workshops"
                             },
                             {
                             "urlkey" : "photo",
                             "id" : 223,
                             "name" : "Photography"
                             },
                             {
                             "urlkey" : "studio-lighting",
                             "id" : 62326,
                             "name" : "Studio Lighting"
                             },
                             {
                             "urlkey" : "digitalvideo",
                             "id" : 1498,
                             "name" : "Digital Video Pros"
                             },
                             {
                             "urlkey" : "photography-classes",
                             "id" : 15043,
                             "name" : "Photography Classes"
                             },
                             {
                             "urlkey" : "videography",
                             "id" : 27494,
                             "name" : "Videography"
                             },
                             {
                             "urlkey" : "video-production",
                             "id" : 112611,
                             "name" : "Video Production"
                             },
                             {
                             "urlkey" : "dslr-video",
                             "id" : 99303,
                             "name" : "DSLR Video"
                             },
                             {
                             "urlkey" : "publicspeaking",
                             "id" : 9300,
                             "name" : "Public Speaking"
                             },
                             {
                             "urlkey" : "socialnetwork",
                             "id" : 4422,
                             "name" : "Social Networking"
                             },
                             {
                             "urlkey" : "business-networking",
                             "id" : 15236,
                             "name" : "Business Networking"
                             },
                             {
                             "urlkey" : "leadership",
                             "id" : 15121,
                             "name" : "Leadership"
                             },
                             {
                             "urlkey" : "communication",
                             "id" : 16225,
                             "name" : "Communication"
                             },
                             {
                             "urlkey" : "leadership-and-self-improvement",
                             "id" : 20457,
                             "name" : "Leadership and Self Improvement"
                             },
                             {
                             "urlkey" : "professional-networking",
                             "id" : 15720,
                             "name" : "Professional Networking"
                             },
                             {
                             "urlkey" : "lawofattraction",
                             "id" : 3382,
                             "name" : "Law of Attraction"
                             },
                             {
                             "urlkey" : "women-entrepreneurs",
                             "id" : 15497,
                             "name" : "Women Entrepreneurs"
                             },
                             {
                             "urlkey" : "self-empowerment-exploration",
                             "id" : 16144,
                             "name" : "Self Empowerment & Exploration"
                             },
                             {
                             "urlkey" : "financial-education",
                             "id" : 18341,
                             "name" : "Financial Education"
                             },
                             {
                             "urlkey" : "self-improvement",
                             "id" : 3336,
                             "name" : "Self-Improvement"
                             },
                             {
                             "urlkey" : "meeting-new-people",
                             "id" : 17866,
                             "name" : "Meeting New People"
                             },
                             {
                             "urlkey" : "millionaire",
                             "id" : 10424,
                             "name" : "Millionaire"
                             },
                             {
                             "urlkey" : "workwmn",
                             "id" : 392,
                             "name" : "Working Women"
                             },
                             {
                             "urlkey" : "personalgrowth",
                             "id" : 8649,
                             "name" : "Personal Growth"
                             },
                             {
                             "urlkey" : "wealth-creation",
                             "id" : 16839,
                             "name" : "Wealth Creation"
                             },
                             {
                             "urlkey" : "businessnetwork",
                             "id" : 10117,
                             "name" : "Business Strategy and Networking"
                             },
                             {
                             "urlkey" : "smallbiz",
                             "id" : 389,
                             "name" : "Small Business"
                             }
                             ],
                 "city" : "Philadelphia",
                 "joined" : 1331830782000,
                 "lang" : "en_US",
                 "country" : "us",
                 "photo" : {
                 "photo_id" : 11430205,
                 "photo_link" : "http://photos2.meetupstatic.com/photos/member/7/5/f/d/member_11430205.jpeg",
                 "highres_link" : "http://photos2.meetupstatic.com/photos/member/7/5/f/d/highres_11430205.jpeg",
                 "thumb_link" : "http://photos4.meetupstatic.com/photos/member/7/5/f/d/thumb_11430205.jpeg"
                 },
                 "name" : "Amanda Johnson"
                 }
                 ],
    "meta" : {
        "id" : "",
        "description" : "API method for accessing members of Meetup Groups",
        "lon" : "",
        "updated" : 1359839563000,
        "count" : 4,
        "signed_url" : "http://api.meetup.com/2/members?order=name&group_urlname=Panorama-Toastmasters&offset=0&format=json&page=4&sig_id=36557242&sig=7ce54fdabf2e250e1d30ddf2c47ab7e840ac5332",
        "link" : "https://api.meetup.com/2/members",
        "url" : "https://api.meetup.com/2/members?key=c45e311a1b4f526d623c5b2f732e3&order=name&group_urlname=Panorama-Toastmasters&offset=0&format=json&page=4&sign=true",
        "title" : "Meetup Members v2",
        "lat" : "",
        "next" : "https://api.meetup.com/2/members?key=c45e311a1b4f526d623c5b2f732e3&order=name&group_urlname=Panorama-Toastmasters&offset=1&format=json&page=4&sign=true",
        "total_count" : 83,
        "method" : "Members"
    }
}